…
<img src="man/figures/README-unnamed-chunk-4-1.png" width="100%" />

    #> $plot
    #> $plot$static_plot

<img src="man/figures/README-unnamed-chunk-4-2.png" width="100%" />

    #> 
    #> $plot$plotly_plot
    #> 
    #> 
    #> $data
    #> $data$original_data
    #> # A tibble: 144 × 4
    #>    index     date_col   value group_id
    #>    <yearmon> <date>     <dbl>    <int>
    #>  1 Jan 1949  1949-01-01   112        1
    #>  2 Feb 1949  1949-02-01   118        2
    #>  3 Mar 1949  1949-03-01   132        3
    #>  4 Apr 1949  1949-04-01   129        4
    #>  5 May 1949  1949-05-01   121        5
    #>  6 Jun 1949  1949-06-01   135        6
    #>  7 Jul 1949  1949-07-01   148        7
    #>  8 Aug 1949  1949-08-01   148        8
    #>  9 Sep 1949  1949-09-01   136        9
    #> 10 Oct 1949  1949-10-01   119       10
    #> # ℹ 134 more rows
…
