Automatic Model Tuning • healthyR.ts
…
Now lets transform the data from a a ts object into a
tibble using the [healthyR.ts::ts_to_tbl()] function.

data_tbl <- ts_to_tbl(data_ts) %>%
  select(-index)

data_tbl
#> # A tibble: 144 x 2
#>    date_col   value
#>    <date>     <dbl>
#>  1 1949-01-01   112
#>  2 1949-02-01   118
#>  3 1949-03-01   132
#>  4 1949-04-01   129
#>  5 1949-05-01   121
#>  6 1949-06-01   135
#>  7 1949-07-01   148
#>  8 1949-08-01   148
#>  9 1949-09-01   136
#> 10 1949-10-01   119
#> # ... with 134 more rows
…
output$data$calibration_tuned_tbl
#> # Modeltime Table
#> # A tibble: 1 x 5
#>   .model_id .model     .model_desc .type .calibration_data
#>       <int> <list>     <chr>       <chr> <list>           
#> 1         1 <workflow> EARTH       Test  <tibble [12 x 4]>

output$data$tscv_data_tbl
#> # A tibble: 747 x 4
#>    .id    .key     date_col   value
#>    <chr>  <fct>    <date>     <dbl>
#>  1 Slice1 training 1949-01-01   112
#>  2 Slice1 training 1949-02-01   118
#>  3 Slice1 training 1949-03-01   132
#>  4 Slice1 training 1949-04-01   129
#>  5 Slice1 training 1949-05-01   121
#>  6 Slice1 training 1949-06-01   135
#>  7 Slice1 training 1949-07-01   148
#>  8 Slice1 training 1949-08-01   148
#>  9 Slice1 training 1949-09-01   136
#> 10 Slice1 training 1949-10-01   119
#> # ... with 737 more rows
…
