…
``` r
rn <- rnorm(31)
df <- data.frame(
 date_col = seq.Date(from = as.Date("2022-01-01"),
                      to = as.Date("2022-01-31"),
                      by = "day"),
 value = rn
)

ts_brownian_motion_augment(
  .data = df,
  .date_col = date_col,
  .value_col = value
)
#> # A tibble: 1,041 × 3
#>    sim_number  date_col     value
#>    <fct>       <date>       <dbl>
#>  1 actual_data 2022-01-01 -0.0521
#>  2 actual_data 2022-01-02 -1.05  
#>  3 actual_data 2022-01-03 -0.0223
#>  4 actual_data 2022-01-04 -0.524 
#>  5 actual_data 2022-01-05 -0.599 
#>  6 actual_data 2022-01-06  0.0306
#>  7 actual_data 2022-01-07 -0.809 
#>  8 actual_data 2022-01-08 -0.305 
#>  9 actual_data 2022-01-09 -0.616 
#> 10 actual_data 2022-01-10 -0.435 
#> # ℹ 1,031 more rows
```
