…
## Author

Steven P. Sanderson II, MPH

## Examples

``` r
ts_brownian_motion()
#> # A tibble: 1,010 × 3
#>    sim_number        t     y
#>    <fct>         <int> <dbl>
#>  1 sim_number 1      1     0
#>  2 sim_number 2      1     0
#>  3 sim_number 3      1     0
#>  4 sim_number 4      1     0
#>  5 sim_number 5      1     0
#>  6 sim_number 6      1     0
#>  7 sim_number 7      1     0
#>  8 sim_number 8      1     0
#>  9 sim_number 9      1     0
#> 10 sim_number 10     1     0
#> # ℹ 1,000 more rows
```
