Time-series Forecasting Simulator — ts_forecast_simulator • healthyR.ts
…
output$plotly_plot

output$forecast_sim_tbl

#> # A tibble: 600 x 4
#>        x     y n        id
#>    <dbl> <dbl> <chr> <int>
#>  1  9     926. sim_1     1
#>  2  9.08  762. sim_1     2
#>  3  9.17  935. sim_1     3
#>  4  9.25  880. sim_1     4
#>  5  9.33  876. sim_1     5
#>  6  9.42  779. sim_1     6
#>  7  9.5   794. sim_1     7
#>  8  9.58  871. sim_1     8
#>  9  9.67  830. sim_1     9
#> 10  9.75  840. sim_1    10
#> # ... with 590 more rows

output$input_data

#> # A tibble: 96 x 2
#>    index               value
#>    <dttm>              <int>
#>  1 2012-01-01 00:00:00  1375
#>  2 2012-02-01 00:00:00  1371
#>  3 2012-03-01 00:00:00  1530
#>  4 2012-04-01 00:00:00  1452
#>  5 2012-05-01 00:00:00  1475
#>  6 2012-06-01 00:00:00  1388
#>  7 2012-07-01 00:00:00  1489
#>  8 2012-08-01 00:00:00  1474
#>  9 2012-09-01 00:00:00  1275
#> 10 2012-10-01 00:00:00  1322
#> # ... with 86 more rows

output$sim_ts_tbl

#> # A tibble: 600 x 5
#>    index                   x     y n        id
#>    <dttm>              <dbl> <dbl> <chr> <int>
#>  1 2020-01-01 00:00:00  9     926. sim_1     1
#>  2 2020-02-01 00:00:00  9.08  762. sim_1     2
#>  3 2020-03-01 00:00:00  9.17  935. sim_1     3
#>  4 2020-04-01 00:00:00  9.25  880. sim_1     4
#>  5 2020-05-01 00:00:00  9.33  876. sim_1     5
#>  6 2020-06-01 00:00:00  9.42  779. sim_1     6
#>  7 2020-07-01 00:00:00  9.5   794. sim_1     7
#>  8 2020-08-01 00:00:00  9.58  871. sim_1     8
#>  9 2020-09-01 00:00:00  9.67  830. sim_1     9
#> 10 2020-10-01 00:00:00  9.75  840. sim_1    10
#> # ... with 590 more rows
…
