…
## Author

Steven P. Sanderson II, MPH

## Examples

``` r
ts_geometric_brownian_motion()
#> # A tibble: 2,600 × 3
#>    sim_number        t     y
#>    <fct>         <int> <dbl>
#>  1 sim_number 1      1   100
#>  2 sim_number 2      1   100
#>  3 sim_number 3      1   100
#>  4 sim_number 4      1   100
#>  5 sim_number 5      1   100
#>  6 sim_number 6      1   100
#>  7 sim_number 7      1   100
#>  8 sim_number 8      1   100
#>  9 sim_number 9      1   100
#> 10 sim_number 10     1   100
#> # ℹ 2,590 more rows
```
