…
``` r
rn <- rnorm(31)
df <- data.frame(
 date_col = seq.Date(from = as.Date("2022-01-01"),
                      to = as.Date("2022-01-31"),
                      by = "day"),
 value = rn
)

ts_geometric_brownian_motion_augment(
  .data = df,
  .date_col = date_col,
  .value_col = value
)
#> # A tibble: 291 × 3
#>    sim_number  date_col    value
#>    <fct>       <date>      <dbl>
#>  1 actual_data 2022-01-01 -0.897
#>  2 actual_data 2022-01-02  0.446
#>  3 actual_data 2022-01-03 -0.182
#>  4 actual_data 2022-01-04  0.699
#>  5 actual_data 2022-01-05 -0.557
#>  6 actual_data 2022-01-06  0.364
#>  7 actual_data 2022-01-07  0.946
#>  8 actual_data 2022-01-08  0.292
#>  9 actual_data 2022-01-09  1.43 
#> 10 actual_data 2022-01-10 -0.502
#> # ℹ 281 more rows
```
