Time Series Moving Average Plot — ts_ma_plot • healthyR.ts
…
#> 2019-12-01  -1.14531138
#> 2020-01-01 -11.71060699
#> 2020-02-01  -7.53052917
#> 2020-03-01 -20.44871795
#> 2020-04-01 -55.09355509
#> 2020-05-01 -51.81695828
#> 2020-06-01 -29.14001421
#> 2020-07-01 -28.35820896
#> 2020-08-01 -19.49152542
#> 2020-09-01 -12.75659824
#> 2020-10-01 -23.67213115
#> 2020-11-01 -75.96006144
#> 
#> $data_summary_tbl
#> # A tibble: 131 x 5
#>    date_col   value  ma12  diff_a diff_b
#>    <date>     <int> <dbl>   <dbl>  <dbl>
#>  1 2010-01-01   433   NA    0          0
#>  2 2010-02-01   422   NA   -2.54       0
#>  3 2010-03-01   494   NA   17.1        0
#>  4 2010-04-01   491   NA   -0.607      0
#>  5 2010-05-01   542   NA   10.4        0
#>  6 2010-06-01   507  476.  -6.46       0
#>  7 2010-07-01   442  481. -12.8        0
#>  8 2010-08-01   501  481.  13.3        0
#>  9 2010-09-01   466  483.  -6.99       0
#> 10 2010-10-01   459  485.  -1.50       0
#> # ... with 121 more rows
…
#> 2020-08-23  -5.2805281
#> 2020-08-30 -11.0714286
#> 2020-09-06 -13.2930514
#> 2020-09-13 -21.4484680
#> 2020-09-20 -13.6222910
#> 2020-09-27 -22.5225225
#> 2020-10-04 -18.7500000
#> 2020-10-11 -18.5074627
#> 2020-10-18 -32.0334262
#> 2020-10-25 -18.0981595
#> 2020-11-01 -30.8605341
#> 2020-11-08 -75.9036145
#> 
#> $data_summary_tbl
#> # A tibble: 567 x 5
#>    date_col   value  ma12 diff_a diff_b
#>    <date>     <int> <dbl>  <dbl>  <dbl>
#>  1 2010-01-03   104    NA   0         0
#>  2 2010-01-10   110    NA   5.77      0
#>  3 2010-01-17    92    NA -16.4       0
#>  4 2010-01-24   125    NA  35.9       0
#>  5 2010-01-31   115    NA  -8         0
#>  6 2010-02-07    98    NA -14.8       0
#>  7 2010-02-14    89    NA  -9.18      0
#>  8 2010-02-21   122    NA  37.1       0
#>  9 2010-02-28   119    NA  -2.46      0
#> 10 2010-03-07    93    NA -21.8       0
#> # ... with 557 more rows
…
