Random Walk Function — ts_random_walk • healthyR.ts
…
    Author

    Steven P. Sanderson II, MPH

    Examples

ts_random_walk(
.mean = 6,
.sd = 1,
.num_walks = 25,
.periods = 180,
.initial_value = 6
)

#> # A tibble: 4,500 x 4
#>      run     x     y        cum_y
#>    <dbl> <dbl> <dbl>        <dbl>
#>  1     1     1  5.05         36.3
#>  2     1     2  5.92        252. 
#>  3     1     3  6.19       1808. 
#>  4     1     4  7.25      14914. 
#>  5     1     5  5.45      96214. 
#>  6     1     6  4.29     508938. 
#>  7     1     7  5.30    3205806. 
#>  8     1     8  7.90   28524708. 
#>  9     1     9  7.11  231457139. 
#> 10     1    10  6.85 1816235320. 
#> # ... with 4,490 more rows
…
