…
## Examples

``` r
ts_random_walk(
.mean = 0,
.sd = 1,
.num_walks = 25,
.periods = 180,
.initial_value = 6
)
#> # A tibble: 4,500 × 4
#>      run     x       y  cum_y
#>    <dbl> <dbl>   <dbl>  <dbl>
#>  1     1     1  1.14    12.8 
#>  2     1     2 -1.54    -6.89
#>  3     1     3 -0.225   -5.34
#>  4     1     4  2.78   -20.1 
#>  5     1     5  1.36   -47.5 
#>  6     1     6  0.0815 -51.4 
#>  7     1     7 -0.104  -46.1 
#>  8     1     8 -0.217  -36.1 
#>  9     1     9 -1.21     7.44
#> 10     1    10 -0.456    4.05
#> # ℹ 4,490 more rows
```
