…
## Author

Steven P. Sanderson II, MPH

## Examples

``` r
df <- ts_to_tbl(AirPassengers)
out <- ts_sma_plot(df, date_col, value, .sma_order = c(3,6))

out$data
#> # A tibble: 288 × 5
#>    index     date_col   value sma_order sma_value
#>    <yearmon> <date>     <dbl> <fct>         <dbl>
#>  1 Jan 1949  1949-01-01   112 3               NA 
#>  2 Feb 1949  1949-02-01   118 3              121.
#>  3 Mar 1949  1949-03-01   132 3              126.
#>  4 Apr 1949  1949-04-01   129 3              127.
#>  5 May 1949  1949-05-01   121 3              128.
#>  6 Jun 1949  1949-06-01   135 3              135.
#>  7 Jul 1949  1949-07-01   148 3              144.
#>  8 Aug 1949  1949-08-01   148 3              144 
#>  9 Sep 1949  1949-09-01   136 3              134.
#> 10 Oct 1949  1949-10-01   119 3              120.
#> # ℹ 278 more rows
…
